…
## # A tibble: 6 × 1
##       country
##         <chr>
## 1 Afghanistan
## 2      Brazil
## 3       China
## 4 Afghanistan
## 5      Brazil
## 6       China

library(gapminder)
gapminder

## # A tibble: 1,704 × 6
##        country continent  year lifeExp      pop gdpPercap
##         <fctr>    <fctr> <int>   <dbl>    <int>     <dbl>
## 1  Afghanistan      Asia  1952  28.801  8425333  779.4453
## 2  Afghanistan      Asia  1957  30.332  9240934  820.8530
## 3  Afghanistan      Asia  1962  31.997 10267083  853.1007
## 4  Afghanistan      Asia  1967  34.020 11537966  836.1971
## 5  Afghanistan      Asia  1972  36.088 13079460  739.9811
## 6  Afghanistan      Asia  1977  38.438 14880372  786.1134
## 7  Afghanistan      Asia  1982  39.854 12881816  978.0114
## 8  Afghanistan      Asia  1987  40.822 13867957  852.3959
## 9  Afghanistan      Asia  1992  41.674 16317921  649.3414
## 10 Afghanistan      Asia  1997  41.763 22227415  635.3414
## # ... with 1,694 more rows
…
## [1] 2 3 4

map_chr(c(4, 9, 16), sqrt)

## [1] "2.000000" "3.000000" "4.000000"

List-cols in data frames

List-cols are a powerful concept that underpin the later part of this tutorial. If data frames are explained as a way to keep character and number vectors together, then list-cols in tibbles take these a step further and allow lists of any object to be kept together. For example, we can create nested data frames where we have a data frame within a data frame:

gm_nest <- gapminder %>% group_by(country, continent) %>% nest()
gm_nest

## # A tibble: 142 × 3
##        country continent              data
##         <fctr>    <fctr>            <list>
## 1  Afghanistan      Asia <tibble [12 × 4]>
## 2      Albania    Europe <tibble [12 × 4]>
## 3      Algeria    Africa <tibble [12 × 4]>
## 4       Angola    Africa <tibble [12 × 4]>
## 5    Argentina  Americas <tibble [12 × 4]>
## 6    Australia   Oceania <tibble [12 × 4]>
## 7      Austria    Europe <tibble [12 × 4]>
## 8      Bahrain      Asia <tibble [12 × 4]>
## 9   Bangladesh      Asia <tibble [12 × 4]>
## 10     Belgium    Europe <tibble [12 × 4]>
## # ... with 132 more rows
…
map_dbl(gm_nest[1:10,]$data, ~nrow(.))

##  [1] 12 12 12 12 12 12 12 12 12 12

This allows us to reach into the data frame and perform an operation, such as summarise one of the columns:

map_dbl(gm_nest[1:10,]$data, ~round(mean(.$lifeExp),1))

##  [1] 37.5 68.4 59.0 37.9 69.1 74.7 73.1 65.6 49.8 73.6

Importantly we can also do this at the level of the parent tibble and store the output in the data frame:

gm_nest %>% mutate(avg_lifeExp=map_dbl(data, ~round(mean(.$lifeExp),1)))

## # A tibble: 142 × 4
##        country continent              data avg_lifeExp
##         <fctr>    <fctr>            <list>       <dbl>
## 1  Afghanistan      Asia <tibble [12 × 4]>        37.5
## 2      Albania    Europe <tibble [12 × 4]>        68.4
## 3      Algeria    Africa <tibble [12 × 4]>        59.0
## 4       Angola    Africa <tibble [12 × 4]>        37.9
## 5    Argentina  Americas <tibble [12 × 4]>        69.1
## 6    Australia   Oceania <tibble [12 × 4]>        74.7
## 7      Austria    Europe <tibble [12 × 4]>        73.1
## 8      Bahrain      Asia <tibble [12 × 4]>        65.6
## 9   Bangladesh      Asia <tibble [12 × 4]>        49.8
## 10     Belgium    Europe <tibble [12 × 4]>        73.6
## # ... with 132 more rows

The power of list-cols

We could have summarised the gapminder data entirely in dplyr without worrying about list-cols and nested data frames:

gapminder %>%
    group_by(country) %>%
    summarise(avg_lifeExp=round(mean(lifeExp),1))

## # A tibble: 142 × 2
##        country avg_lifeExp
##         <fctr>       <dbl>
## 1  Afghanistan        37.5
## 2      Albania        68.4
## 3      Algeria        59.0
## 4       Angola        37.9
## 5    Argentina        69.1
## 6    Australia        74.7
## 7      Austria        73.1
## 8      Bahrain        65.6
## 9   Bangladesh        49.8
## 10     Belgium        73.6
## # ... with 132 more rows

However, by using map rather than map_dbl we can create new list-cols, which can contain lists of any object that we want. In the example below we create a plot for each country, then display the first plot for Afghanistan:

gm_plots <- gm_nest %>%
    mutate(plot=map(data, ~qplot(x=year, y=lifeExp, data=.)))
gm_plots

## # A tibble: 142 × 4
##        country continent              data     plot
##         <fctr>    <fctr>            <list>   <list>
## 1  Afghanistan      Asia <tibble [12 × 4]> <S3: gg>
## 2      Albania    Europe <tibble [12 × 4]> <S3: gg>
## 3      Algeria    Africa <tibble [12 × 4]> <S3: gg>
## 4       Angola    Africa <tibble [12 × 4]> <S3: gg>
## 5    Argentina  Americas <tibble [12 × 4]> <S3: gg>
## 6    Australia   Oceania <tibble [12 × 4]> <S3: gg>
## 7      Austria    Europe <tibble [12 × 4]> <S3: gg>
## 8      Bahrain      Asia <tibble [12 × 4]> <S3: gg>
## 9   Bangladesh      Asia <tibble [12 × 4]> <S3: gg>
## 10     Belgium    Europe <tibble [12 × 4]> <S3: gg>
## # ... with 132 more rows
…
Fit a linear regression model for each country

Extract the slope and r2 value for each country

Plot all countries together

gapminder_analysis <- gapminder %>%
    group_by(country, continent) %>%
    nest() %>%
    mutate(model=map(data, ~lm(lifeExp ~ year, data=.)),
           slope=map_dbl(model, ~coef(.)['year']),
           r2=map_dbl(model, ~broom::glance(.)$`r.squared`))
gapminder_analysis

## # A tibble: 142 × 6
##        country continent              data    model     slope        r2
##         <fctr>    <fctr>            <list>   <list>     <dbl>     <dbl>
## 1  Afghanistan      Asia <tibble [12 × 4]> <S3: lm> 0.2753287 0.9477123
## 2      Albania    Europe <tibble [12 × 4]> <S3: lm> 0.3346832 0.9105778
## 3      Algeria    Africa <tibble [12 × 4]> <S3: lm> 0.5692797 0.9851172
## 4       Angola    Africa <tibble [12 × 4]> <S3: lm> 0.2093399 0.8878146
## 5    Argentina  Americas <tibble [12 × 4]> <S3: lm> 0.2317084 0.9955681
## 6    Australia   Oceania <tibble [12 × 4]> <S3: lm> 0.2277238 0.9796477
## 7      Austria    Europe <tibble [12 × 4]> <S3: lm> 0.2419923 0.9921340
## 8      Bahrain      Asia <tibble [12 × 4]> <S3: lm> 0.4675077 0.9667398
## 9   Bangladesh      Asia <tibble [12 × 4]> <S3: lm> 0.4981308 0.9893609
## 10     Belgium    Europe <tibble [12 × 4]> <S3: lm> 0.2090846 0.9945406
## # ... with 132 more rows
…
Do the differential expression analysis and extract the results:

dds <- DESeq(dds, quiet = TRUE)
res <- results(dds, lfcThreshold=0, tidy = TRUE) %>% tbl_df()
res

## # A tibble: 29,391 × 7
##                row     baseMean log2FoldChange      lfcSE       stat
##              <chr>        <dbl>          <dbl>      <dbl>      <dbl>
## 1  ENSG00000000003  708.6021697     0.37415193 0.09884432  3.7852647
## 2  ENSG00000000419  520.2979006    -0.20206144 0.10974240 -1.8412340
## 3  ENSG00000000457  237.1630368    -0.03616620 0.13834539 -0.2614196
## 4  ENSG00000000460   57.9326331     0.08446385 0.24990676  0.3379815
## 5  ENSG00000000938    0.3180984     0.08413902 0.15133424  0.5559814
## 6  ENSG00000000971 5817.3528677    -0.42111175 0.08709010 -4.8353572
## 7  ENSG00000001036 1282.1063855     0.23780679 0.08748607  2.7182247
## 8  ENSG00000001084  609.8920919     0.04305490 0.15874177  0.2712260
## 9  ENSG00000001167  369.3428078     0.48619170 0.11774073  4.1293416
## 10 ENSG00000001460  183.2376742     0.11818056 0.17004168  0.6950094
## # ... with 29,381 more rows, and 2 more variables: pvalue <dbl>,
## #   padj <dbl>
…
