…
Executing this function gives:

    my_analysis(img_dir, img_fns[2])[,1:10]

    ## # A tibble: 643 × 10
    ##    nuc.0.m.cx nuc.0.m.cy nuc.0.m.majoraxis nuc.0.m.eccentricity
    ##         <dbl>      <dbl>             <dbl>                <dbl>
    ## 1    340.8723   5.170213          36.93518            0.9593496
    ## 2    373.9119  14.230114          37.26945            0.9042750
    ## 3    678.2109   5.848073          52.91174            0.9735053
    ## 4    401.2371  15.255319          28.19475            0.7671519
    ## 5    183.5048  17.751196          25.65502            0.4341690
    ## 6    242.0478  17.207578          34.81881            0.7315120
    ## 7    987.3580  15.755830          60.53174            0.9263969
    ## 8   1034.2368  17.234211          30.34673            0.8440239
    ## 9    533.6965  25.022339          37.26028            0.6995606
    ## 10   625.0966  18.284483          35.56468            0.7850606
    ## # ... with 633 more rows, and 6 more variables: nuc.0.m.theta <dbl>,
    ## #   nuc.0.s.area <dbl>, nuc.0.s.perimeter <dbl>,
    ## #   nuc.0.s.radius.mean <dbl>, nuc.0.s.radius.sd <dbl>,
    ## #   nuc.0.s.radius.min <dbl>
…
